[gd_resource type="QuadMesh" load_steps=3 format=2]

[ext_resource path="res://textures/smoke01.png" type="Texture" id=1]

[sub_resource type="SpatialMaterial" id=6]

flags_transparent = true
flags_unshaded = true
vertex_color_use_as_albedo = true
params_billboard_mode = 3
particles_anim_h_frames = 1
particles_anim_v_frames = 1
particles_anim_loop = false
albedo_color = Color( 1, 1, 1, 0.588235 )
albedo_texture = ExtResource( 1 )

[resource]

material = SubResource( 6 )

