<?xml version="1.0" encoding="UTF-8" standalone="no"?>
<!-- Created with Inkscape (http://www.inkscape.org/) -->

<svg
   xmlns:dc="http://purl.org/dc/elements/1.1/"
   xmlns:cc="http://creativecommons.org/ns#"
   xmlns:rdf="http://www.w3.org/1999/02/22-rdf-syntax-ns#"
   xmlns:svg="http://www.w3.org/2000/svg"
   xmlns="http://www.w3.org/2000/svg"
   xmlns:sodipodi="http://sodipodi.sourceforge.net/DTD/sodipodi-0.dtd"
   xmlns:inkscape="http://www.inkscape.org/namespaces/inkscape"
   width="210mm"
   height="297mm"
   viewBox="0 0 744.09448819 1052.3622047"
   id="svg2"
   version="1.1"
   inkscape:version="0.91 r13725"
   enable-background="new"
   sodipodi:docname="rotation-interpolation.svg">
  <defs
     id="defs4" />
  <sodipodi:namedview
     id="base"
     pagecolor="#ffffff"
     bordercolor="#666666"
     borderopacity="1.0"
     inkscape:pageopacity="0.0"
     inkscape:pageshadow="2"
     inkscape:zoom="1"
     inkscape:cx="-40.878376"
     inkscape:cy="624.19047"
     inkscape:document-units="px"
     inkscape:current-layer="layer2"
     showgrid="false"
     showborder="false"
     inkscape:window-width="1920"
     inkscape:window-height="1053"
     inkscape:window-x="0"
     inkscape:window-y="0"
     inkscape:window-maximized="1" />
  <metadata
     id="metadata7">
    <rdf:RDF>
      <cc:Work
         rdf:about="">
        <dc:format>image/svg+xml</dc:format>
        <dc:type
           rdf:resource="http://purl.org/dc/dcmitype/StillImage" />
        <dc:title></dc:title>
      </cc:Work>
    </rdf:RDF>
  </metadata>
  <g
     inkscape:label="visu"
     inkscape:groupmode="layer"
     id="layer1"
     style="display:inline;">
    <g
       inkscape:groupmode="layer"
       id="layer2"
       inkscape:label="bg"
       style="display:inline">
      <rect
         style="opacity:1;fill:#000000;fill-opacity:1;stroke:none;stroke-width:2;stroke-linecap:butt;stroke-linejoin:round;stroke-miterlimit:4;stroke-dasharray:none;stroke-dashoffset:0;stroke-opacity:1"
         id="rect5787"
         width="786.04639"
         height="448.06665"
         x="-519.52319"
         y="236.4823"
         inkscape:export-filename="/home/frankiezafe/Pictures/rotation-interpolation.png"
         inkscape:export-xdpi="90"
         inkscape:export-ydpi="90" />
    </g>
    <g
       id="g5932">
      <circle
         r="117.5"
         cy="425.86221"
         cx="-316.5"
         id="path4136"
         style="opacity:1;fill:#ffffff;fill-opacity:0.6583851;stroke:none;stroke-width:1;stroke-linecap:butt;stroke-linejoin:round;stroke-miterlimit:4;stroke-dasharray:4, 4;stroke-dashoffset:0;stroke-opacity:1" />
      <circle
         style="opacity:1;fill:#ffffff;fill-opacity:0.65838509;stroke:none;stroke-width:1;stroke-linecap:butt;stroke-linejoin:round;stroke-miterlimit:4;stroke-dasharray:4, 4;stroke-dashoffset:0;stroke-opacity:1"
         id="circle5839"
         cx="63.5"
         cy="425.86221"
         r="117.5" />
    </g>
    <path
       id="circle4138"
       style="opacity:1;fill:none;fill-opacity:0.13333333;stroke:#ff0000;stroke-width:4;stroke-linecap:butt;stroke-linejoin:round;stroke-miterlimit:4;stroke-dasharray:none;stroke-dashoffset:0;stroke-opacity:1"
       sodipodi:type="arc"
       sodipodi:cx="-316.5"
       sodipodi:cy="425.86221"
       sodipodi:rx="117.5"
       sodipodi:ry="117.5"
       sodipodi:start="0.62929368"
       sodipodi:end="2.4628959"
       d="m -221.5079,495.01964 a 117.5,117.5 0 0 1 -92.08996,48.30673 117.5,117.5 0 0 1 -94.36314,-43.70011"
       sodipodi:open="true" />
    <path
       style="fill:none;fill-rule:evenodd;stroke:#ffffff;stroke-width:1px;stroke-linecap:butt;stroke-linejoin:miter;stroke-opacity:1"
       d="m -452.75,425.8622 272.5,0"
       id="path4140"
       inkscape:connector-curvature="0" />
    <path
       inkscape:connector-curvature="0"
       id="path4142"
       d="m -316.5,562.1122 0,-272.5"
       style="fill:none;fill-rule:evenodd;stroke:#ffffff;stroke-width:1px;stroke-linecap:butt;stroke-linejoin:miter;stroke-opacity:1" />
    <flowRoot
       xml:space="preserve"
       id="flowRoot4144"
       style="font-style:normal;font-weight:normal;font-size:40px;line-height:125%;font-family:sans-serif;letter-spacing:0px;word-spacing:0px;fill:#ffffff;fill-opacity:1;stroke:none;stroke-width:1px;stroke-linecap:butt;stroke-linejoin:miter;stroke-opacity:1"
       transform="translate(0,2.7436735)"><flowRegion
         id="flowRegion4146"><rect
           id="rect4148"
           width="56.5"
           height="74.5"
           x="-172.5"
           y="412.36221"
           style="fill:#ffffff;fill-opacity:1" /></flowRegion><flowPara
         id="flowPara4150"
         style="font-style:normal;font-variant:normal;font-weight:normal;font-stretch:normal;font-size:18.75px;font-family:'CatV 6x12 9';-inkscape-font-specification:'CatV 6x12 9, ';fill:#ffffff;fill-opacity:1">0</flowPara></flowRoot>    <flowRoot
       transform="translate(-306,2.7436735)"
       style="font-style:normal;font-weight:normal;font-size:40px;line-height:125%;font-family:sans-serif;letter-spacing:0px;word-spacing:0px;fill:#ffffff;fill-opacity:1;stroke:none;stroke-width:1px;stroke-linecap:butt;stroke-linejoin:miter;stroke-opacity:1"
       id="flowRoot5712"
       xml:space="preserve"><flowRegion
         id="flowRegion5714"><rect
           y="412.36221"
           x="-172.5"
           height="74.5"
           width="56.5"
           id="rect5716"
           style="fill:#ffffff;fill-opacity:1" /></flowRegion><flowPara
         style="font-style:normal;font-variant:normal;font-weight:normal;font-stretch:normal;font-size:18.75px;font-family:'CatV 6x12 9';-inkscape-font-specification:'CatV 6x12 9, ';fill:#ffffff;fill-opacity:1"
         id="flowPara5718">PI</flowPara></flowRoot>    <flowRoot
       xml:space="preserve"
       id="flowRoot5720"
       style="font-style:normal;font-weight:normal;font-size:40px;line-height:125%;font-family:sans-serif;letter-spacing:0px;word-spacing:0px;fill:#ffffff;fill-opacity:1;stroke:none;stroke-width:1px;stroke-linecap:butt;stroke-linejoin:miter;stroke-opacity:1"
       transform="translate(-161.96875,148.55215)"><flowRegion
         id="flowRegion5722"><rect
           id="rect5724"
           width="202"
           height="81.5"
           x="-172.5"
           y="412.36221"
           style="fill:#ffffff;fill-opacity:1" /></flowRegion><flowPara
         id="flowPara5726"
         style="font-style:normal;font-variant:normal;font-weight:normal;font-stretch:normal;font-size:18.75px;font-family:'CatV 6x12 9';-inkscape-font-specification:'CatV 6x12 9, ';fill:#ffffff;fill-opacity:1">PI/2</flowPara></flowRoot>    <flowRoot
       transform="translate(-166.65625,-143.44785)"
       style="font-style:normal;font-weight:normal;font-size:40px;line-height:125%;font-family:sans-serif;letter-spacing:0px;word-spacing:0px;fill:#ffffff;fill-opacity:1;stroke:none;stroke-width:1px;stroke-linecap:butt;stroke-linejoin:miter;stroke-opacity:1;"
       id="flowRoot5728"
       xml:space="preserve"><flowRegion
         id="flowRegion5730"><rect
           y="412.36221"
           x="-172.5"
           height="81.5"
           width="202"
           id="rect5732"
           style="fill:#ffffff;fill-opacity:1;" /></flowRegion><flowPara
         style="font-style:normal;font-variant:normal;font-weight:normal;font-stretch:normal;font-size:18.75px;font-family:'CatV 6x12 9';-inkscape-font-specification:'CatV 6x12 9, ';fill:#ffffff;fill-opacity:1;"
         id="flowPara5734">3PI/2</flowPara></flowRoot>    <path
       inkscape:connector-curvature="0"
       id="path5736"
       d="m -452.75,625.8622 272.5,0"
       style="fill:none;fill-rule:evenodd;stroke:#ffffff;stroke-width:1;stroke-linecap:butt;stroke-linejoin:miter;stroke-miterlimit:4;stroke-dasharray:none;stroke-opacity:1" />
    <flowRoot
       xml:space="preserve"
       id="flowRoot4144-3"
       style="font-style:normal;font-weight:normal;font-size:40px;line-height:125%;font-family:sans-serif;letter-spacing:0px;word-spacing:0px;fill:#ffffff;fill-opacity:1;stroke:none;stroke-width:1px;stroke-linecap:butt;stroke-linejoin:miter;stroke-opacity:1"
       transform="translate(-296.625,202.74366)"><flowRegion
         id="flowRegion4146-6"><rect
           id="rect4148-7"
           width="56.5"
           height="74.5"
           x="-172.5"
           y="412.36221"
           style="fill:#ffffff;fill-opacity:1" /></flowRegion><flowPara
         id="flowPara4150-5"
         style="font-style:normal;font-variant:normal;font-weight:normal;font-stretch:normal;font-size:18.75px;font-family:'CatV 6x12 9';-inkscape-font-specification:'CatV 6x12 9, ';fill:#ffffff;fill-opacity:1">0</flowPara></flowRoot>    <flowRoot
       transform="translate(0,202.74366)"
       style="font-style:normal;font-weight:normal;font-size:40px;line-height:125%;font-family:sans-serif;letter-spacing:0px;word-spacing:0px;fill:#ffffff;fill-opacity:1;stroke:none;stroke-width:1px;stroke-linecap:butt;stroke-linejoin:miter;stroke-opacity:1"
       id="flowRoot5712-3"
       xml:space="preserve"><flowRegion
         id="flowRegion5714-5"><rect
           y="412.36221"
           x="-172.5"
           height="74.5"
           width="56.5"
           id="rect5716-6"
           style="fill:#ffffff;fill-opacity:1" /></flowRegion><flowPara
         style="font-style:normal;font-variant:normal;font-weight:normal;font-stretch:normal;font-size:18.75px;font-family:'CatV 6x12 9';-inkscape-font-specification:'CatV 6x12 9, ';fill:#ffffff;fill-opacity:1"
         id="flowPara5718-2">2PI</flowPara></flowRoot>    <path
       sodipodi:type="star"
       style="opacity:1;fill:#ff0000;fill-opacity:1;stroke:none;stroke-width:4;stroke-linecap:butt;stroke-linejoin:round;stroke-miterlimit:4;stroke-dasharray:none;stroke-dashoffset:0;stroke-opacity:1"
       id="path5820"
       sodipodi:sides="3"
       sodipodi:cx="-94.752312"
       sodipodi:cy="432.93665"
       sodipodi:r1="12.020815"
       sodipodi:r2="6.0104074"
       sodipodi:arg1="0.52359878"
       sodipodi:arg2="1.5707963"
       inkscape:flatsided="false"
       inkscape:rounded="0"
       inkscape:randomized="0"
       d="m -84.341981,438.94705 -10.410331,0 -10.410328,0 5.205163,-9.01561 5.205165,-9.01561 5.205166,9.01561 z"
       transform="matrix(0.82606357,-0.56357694,0.56357694,0.82606357,-576.02038,84.924124)"
       inkscape:transform-center-x="-2.6061453"
       inkscape:transform-center-y="0.45101935" />
    <path
       style="fill:none;fill-rule:evenodd;stroke:#ff0000;stroke-width:3;stroke-linecap:butt;stroke-linejoin:miter;stroke-miterlimit:4;stroke-dasharray:none;stroke-opacity:1"
       d="m -420.75002,625.86223 70.186,0"
       id="path5822"
       inkscape:connector-curvature="0"
       sodipodi:nodetypes="cc" />
    <path
       d="m 150.11492,346.46381 a 117.5,117.5 0 0 1 8.16419,148.84746"
       sodipodi:end="0.63236709"
       sodipodi:start="5.5412293"
       sodipodi:ry="117.5"
       sodipodi:rx="117.5"
       sodipodi:cy="425.86221"
       sodipodi:cx="63.5"
       sodipodi:type="arc"
       style="opacity:1;fill:none;fill-opacity:0.13333333;stroke:#ff0000;stroke-width:4;stroke-linecap:butt;stroke-linejoin:round;stroke-miterlimit:4;stroke-dasharray:none;stroke-dashoffset:0;stroke-opacity:1"
       id="path5841"
       sodipodi:open="true" />
    <path
       inkscape:connector-curvature="0"
       id="path5843"
       d="m -72.75,425.8622 272.5,0"
       style="fill:none;fill-rule:evenodd;stroke:#ffffff;stroke-width:1px;stroke-linecap:butt;stroke-linejoin:miter;stroke-opacity:1" />
    <path
       style="fill:none;fill-rule:evenodd;stroke:#ffffff;stroke-width:1px;stroke-linecap:butt;stroke-linejoin:miter;stroke-opacity:1"
       d="m 63.5,562.1122 0,-272.5"
       id="path5845"
       inkscape:connector-curvature="0" />
    <flowRoot
       transform="translate(380,2.7436735)"
       style="font-style:normal;font-weight:normal;font-size:40px;line-height:125%;font-family:sans-serif;letter-spacing:0px;word-spacing:0px;fill:#ffffff;fill-opacity:1;stroke:none;stroke-width:1px;stroke-linecap:butt;stroke-linejoin:miter;stroke-opacity:1"
       id="flowRoot5847"
       xml:space="preserve"><flowRegion
         id="flowRegion5849"><rect
           style="fill:#ffffff;fill-opacity:1"
           y="412.36221"
           x="-172.5"
           height="74.5"
           width="56.5"
           id="rect5851" /></flowRegion><flowPara
         style="font-style:normal;font-variant:normal;font-weight:normal;font-stretch:normal;font-size:18.75px;font-family:'CatV 6x12 9';-inkscape-font-specification:'CatV 6x12 9, ';fill:#ffffff;fill-opacity:1"
         id="flowPara5853">0</flowPara></flowRoot>    <flowRoot
       xml:space="preserve"
       id="flowRoot5855"
       style="font-style:normal;font-weight:normal;font-size:40px;line-height:125%;font-family:sans-serif;letter-spacing:0px;word-spacing:0px;fill:#ffffff;fill-opacity:1;stroke:none;stroke-width:1px;stroke-linecap:butt;stroke-linejoin:miter;stroke-opacity:1"
       transform="translate(74,2.7436735)"><flowRegion
         id="flowRegion5857"><rect
           style="fill:#ffffff;fill-opacity:1"
           id="rect5859"
           width="56.5"
           height="74.5"
           x="-172.5"
           y="412.36221" /></flowRegion><flowPara
         id="flowPara5861"
         style="font-style:normal;font-variant:normal;font-weight:normal;font-stretch:normal;font-size:18.75px;font-family:'CatV 6x12 9';-inkscape-font-specification:'CatV 6x12 9, ';fill:#ffffff;fill-opacity:1">PI</flowPara></flowRoot>    <flowRoot
       transform="translate(218.03125,148.55215)"
       style="font-style:normal;font-weight:normal;font-size:40px;line-height:125%;font-family:sans-serif;letter-spacing:0px;word-spacing:0px;fill:#ffffff;fill-opacity:1;stroke:none;stroke-width:1px;stroke-linecap:butt;stroke-linejoin:miter;stroke-opacity:1"
       id="flowRoot5863"
       xml:space="preserve"><flowRegion
         id="flowRegion5865"><rect
           style="fill:#ffffff;fill-opacity:1"
           y="412.36221"
           x="-172.5"
           height="81.5"
           width="202"
           id="rect5867" /></flowRegion><flowPara
         style="font-style:normal;font-variant:normal;font-weight:normal;font-stretch:normal;font-size:18.75px;font-family:'CatV 6x12 9';-inkscape-font-specification:'CatV 6x12 9, ';fill:#ffffff;fill-opacity:1"
         id="flowPara5869">PI/2</flowPara></flowRoot>    <flowRoot
       xml:space="preserve"
       id="flowRoot5871"
       style="font-style:normal;font-weight:normal;font-size:40px;line-height:125%;font-family:sans-serif;letter-spacing:0px;word-spacing:0px;fill:#ffffff;fill-opacity:1;stroke:none;stroke-width:1px;stroke-linecap:butt;stroke-linejoin:miter;stroke-opacity:1"
       transform="translate(213.34375,-143.44785)"><flowRegion
         id="flowRegion5873"><rect
           style="fill:#ffffff;fill-opacity:1"
           id="rect5875"
           width="202"
           height="81.5"
           x="-172.5"
           y="412.36221" /></flowRegion><flowPara
         id="flowPara5877"
         style="font-style:normal;font-variant:normal;font-weight:normal;font-stretch:normal;font-size:18.75px;font-family:'CatV 6x12 9';-inkscape-font-specification:'CatV 6x12 9, ';fill:#ffffff;fill-opacity:1">3PI/2</flowPara></flowRoot>    <path
       style="fill:none;fill-rule:evenodd;stroke:#ffffff;stroke-width:1;stroke-linecap:butt;stroke-linejoin:miter;stroke-miterlimit:4;stroke-dasharray:none;stroke-opacity:1"
       d="m -72.75,625.8622 272.5,0"
       id="path5879"
       inkscape:connector-curvature="0" />
    <path
       sodipodi:type="star"
       style="display:inline;opacity:1;fill:#ff0000;fill-opacity:1;stroke:none;stroke-width:4;stroke-linecap:butt;stroke-linejoin:round;stroke-miterlimit:4;stroke-dasharray:none;stroke-dashoffset:0;stroke-opacity:1"
       id="path5820-9"
       sodipodi:sides="3"
       sodipodi:cx="-94.752312"
       sodipodi:cy="432.93665"
       sodipodi:r1="12.020815"
       sodipodi:r2="6.0104074"
       sodipodi:arg1="0.52359878"
       sodipodi:arg2="1.5707963"
       inkscape:flatsided="false"
       inkscape:rounded="0"
       inkscape:randomized="0"
       d="m -84.341981,438.94705 -10.410331,0 -10.410328,0 5.205163,-9.01561 5.205165,-9.01561 5.205166,9.01561 z"
       transform="matrix(0.8681154,-0.49636241,-0.49636241,-0.8681154,459.63495,954.59365)"
       inkscape:transform-center-x="2.9833283"
       inkscape:transform-center-y="0.025200264" />
    <flowRoot
       transform="translate(83.375,202.74366)"
       style="font-style:normal;font-weight:normal;font-size:40px;line-height:125%;font-family:sans-serif;letter-spacing:0px;word-spacing:0px;fill:#ffffff;fill-opacity:1;stroke:none;stroke-width:1px;stroke-linecap:butt;stroke-linejoin:miter;stroke-opacity:1"
       id="flowRoot5881"
       xml:space="preserve"><flowRegion
         id="flowRegion5883"><rect
           style="fill:#ffffff;fill-opacity:1"
           y="412.36221"
           x="-172.5"
           height="74.5"
           width="56.5"
           id="rect5885" /></flowRegion><flowPara
         style="font-style:normal;font-variant:normal;font-weight:normal;font-stretch:normal;font-size:18.75px;font-family:'CatV 6x12 9';-inkscape-font-specification:'CatV 6x12 9, ';fill:#ffffff;fill-opacity:1"
         id="flowPara5887">0</flowPara></flowRoot>    <flowRoot
       xml:space="preserve"
       id="flowRoot5889"
       style="font-style:normal;font-weight:normal;font-size:40px;line-height:125%;font-family:sans-serif;letter-spacing:0px;word-spacing:0px;fill:#ffffff;fill-opacity:1;stroke:none;stroke-width:1px;stroke-linecap:butt;stroke-linejoin:miter;stroke-opacity:1"
       transform="translate(380,202.74366)"><flowRegion
         id="flowRegion5891"><rect
           style="fill:#ffffff;fill-opacity:1"
           id="rect5893"
           width="56.5"
           height="74.5"
           x="-172.5"
           y="412.36221" /></flowRegion><flowPara
         id="flowPara5895"
         style="font-style:normal;font-variant:normal;font-weight:normal;font-stretch:normal;font-size:18.75px;font-family:'CatV 6x12 9';-inkscape-font-specification:'CatV 6x12 9, ';fill:#ffffff;fill-opacity:1">2PI</flowPara></flowRoot>    <path
       inkscape:transform-center-y="1.5555379"
       inkscape:transform-center-x="-1.5556864"
       transform="matrix(0.70711489,-0.70709867,0.70709867,0.70711489,-92.426858,-30.17765)"
       d="m -84.341981,438.94705 -10.410331,0 -10.410328,0 5.205163,-9.01561 5.205165,-9.01561 5.205166,9.01561 z"
       inkscape:randomized="0"
       inkscape:rounded="0"
       inkscape:flatsided="false"
       sodipodi:arg2="1.5707963"
       sodipodi:arg1="0.52359878"
       sodipodi:r2="6.0104074"
       sodipodi:r1="12.020815"
       sodipodi:cy="432.93665"
       sodipodi:cx="-94.752312"
       sodipodi:sides="3"
       id="path5897"
       style="opacity:1;fill:#ff0000;fill-opacity:1;stroke:none;stroke-width:4;stroke-linecap:butt;stroke-linejoin:round;stroke-miterlimit:4;stroke-dasharray:none;stroke-dashoffset:0;stroke-opacity:1"
       sodipodi:type="star" />
    <path
       sodipodi:nodetypes="cc"
       inkscape:connector-curvature="0"
       id="path5903"
       d="m -40.75002,625.86223 -33.814,0"
       style="fill:none;fill-rule:evenodd;stroke:#ff0000;stroke-width:3;stroke-linecap:butt;stroke-linejoin:miter;stroke-miterlimit:4;stroke-dasharray:none;stroke-opacity:1" />
    <path
       style="fill:none;fill-rule:evenodd;stroke:#ff0000;stroke-width:3;stroke-linecap:butt;stroke-linejoin:miter;stroke-miterlimit:4;stroke-dasharray:none;stroke-opacity:1"
       d="m 201.24998,625.86223 -33.814,0"
       id="path5905"
       inkscape:connector-curvature="0"
       sodipodi:nodetypes="cc" />
    <circle
       style="display:inline;opacity:1;fill:#ff0000;fill-opacity:1;stroke:none;stroke-width:3;stroke-linecap:butt;stroke-linejoin:round;stroke-miterlimit:4;stroke-dasharray:none;stroke-dashoffset:0;stroke-opacity:1"
       id="path5907"
       cx="-219.96771"
       cy="492.98914"
       r="5" />
    <circle
       r="5"
       cy="492.98914"
       cx="160.03229"
       id="circle5924"
       style="display:inline;opacity:1;fill:#ff0000;fill-opacity:1;stroke:none;stroke-width:3;stroke-linecap:butt;stroke-linejoin:round;stroke-miterlimit:4;stroke-dasharray:none;stroke-dashoffset:0;stroke-opacity:1" />
    <circle
       style="display:inline;opacity:1;fill:#ff0000;fill-opacity:1;stroke:none;stroke-width:3;stroke-linecap:butt;stroke-linejoin:round;stroke-miterlimit:4;stroke-dasharray:none;stroke-dashoffset:0;stroke-opacity:1"
       id="circle5926"
       cx="-39.967712"
       cy="625.86218"
       r="5" />
    <circle
       r="5"
       cy="625.86218"
       cx="-419.96771"
       id="circle5928"
       style="display:inline;opacity:1;fill:#ff0000;fill-opacity:1;stroke:none;stroke-width:3;stroke-linecap:butt;stroke-linejoin:round;stroke-miterlimit:4;stroke-dasharray:none;stroke-dashoffset:0;stroke-opacity:1" />
    <path
       inkscape:transform-center-y="0.025200264"
       inkscape:transform-center-x="-2.9833244"
       transform="matrix(-0.8681154,-0.49636241,0.49636241,-0.8681154,-640.63057,954.59365)"
       d="m -84.341981,438.94705 -10.410331,0 -10.410328,0 5.205163,-9.01561 5.205165,-9.01561 5.205166,9.01561 z"
       inkscape:randomized="0"
       inkscape:rounded="0"
       inkscape:flatsided="false"
       sodipodi:arg2="1.5707963"
       sodipodi:arg1="0.52359878"
       sodipodi:r2="6.0104074"
       sodipodi:r1="12.020815"
       sodipodi:cy="432.93665"
       sodipodi:cx="-94.752312"
       sodipodi:sides="3"
       id="path5930"
       style="display:inline;opacity:1;fill:#ff0000;fill-opacity:1;stroke:none;stroke-width:4;stroke-linecap:butt;stroke-linejoin:round;stroke-miterlimit:4;stroke-dasharray:none;stroke-dashoffset:0;stroke-opacity:1"
       sodipodi:type="star" />
  </g>
</svg>
